<?xml version="1.0" encoding="UTF-8" standalone="no"?>
<!-- Created with Inkscape (http://www.inkscape.org/) -->

<svg
   xmlns:dc="http://purl.org/dc/elements/1.1/"
   xmlns:cc="http://creativecommons.org/ns#"
   xmlns:rdf="http://www.w3.org/1999/02/22-rdf-syntax-ns#"
   xmlns:svg="http://www.w3.org/2000/svg"
   xmlns="http://www.w3.org/2000/svg"
   xmlns:sodipodi="http://sodipodi.sourceforge.net/DTD/sodipodi-0.dtd"
   xmlns:inkscape="http://www.inkscape.org/namespaces/inkscape"
   width="744.09448819"
   height="1052.3622047"
   id="svg2"
   version="1.1"
   inkscape:version="0.48.4 r9939"
   sodipodi:docname="New document 1">
  <defs
     id="defs4" />
  <sodipodi:namedview
     id="base"
     pagecolor="#ffffff"
     bordercolor="#666666"
     borderopacity="1.0"
     inkscape:pageopacity="0.0"
     inkscape:pageshadow="2"
     inkscape:zoom="1.979899"
     inkscape:cx="398.96633"
     inkscape:cy="646.41776"
     inkscape:document-units="px"
     inkscape:current-layer="layer1"
     showgrid="false"
     inkscape:window-width="1600"
     inkscape:window-height="838"
     inkscape:window-x="-8"
     inkscape:window-y="-8"
     inkscape:window-maximized="1" />
  <metadata
     id="metadata7">
    <rdf:RDF>
      <cc:Work
         rdf:about="">
        <dc:format>image/svg+xml</dc:format>
        <dc:type
           rdf:resource="http://purl.org/dc/dcmitype/StillImage" />
        <dc:title></dc:title>
      </cc:Work>
    </rdf:RDF>
  </metadata>
  <g
     inkscape:label="Layer 1"
     inkscape:groupmode="layer"
     id="layer1">
    <path
       transform="matrix(0.06921699,0,0,0.06921699,288.01107,258.49369)"
       sodipodi:type="arc"
       style="fill:#f13600;fill-opacity:1;stroke:none"
       id="path2985"
       sodipodi:cx="377.79706"
       sodipodi:cy="531.12347"
       sodipodi:rx="262.63965"
       sodipodi:ry="262.63965"
       d="m 640.43671,531.12347 a 262.63965,262.63965 0 1 1 -525.2793,0 262.63965,262.63965 0 1 1 525.2793,0 z" />
    <path
       transform="matrix(0.16681397,0,0,0.16681397,313.15565,206.68659)"
       sodipodi:type="arc"
       style="fill:#0657ff;fill-opacity:1;stroke:none"
       id="path2985-1"
       sodipodi:cx="377.79706"
       sodipodi:cy="531.12347"
       sodipodi:rx="262.63965"
       sodipodi:ry="262.63965"
       d="m 640.43671,531.12347 a 262.63965,262.63965 0 1 1 -525.2793,0 262.63965,262.63965 0 1 1 525.2793,0 z"
       inkscape:export-xdpi="175.44952"
       inkscape:export-ydpi="175.44952"
       inkscape:export-filename="C:\Users\R2D2\Documents\UWS Game Jam 2014\Assets\Sprites\Earth.png" />
    <flowRoot
       xml:space="preserve"
       id="flowRoot2999"
       style="font-size:40px;font-style:normal;font-weight:normal;line-height:125%;letter-spacing:0px;word-spacing:0px;fill:#000000;fill-opacity:1;stroke:none;font-family:Sans"
       transform="translate(5.555839,39.901026)"><flowRegion
         id="flowRegion3001"><rect
           id="rect3003"
           width="185.36299"
           height="45.961941"
           x="419.71838"
           y="227.57263" /></flowRegion><flowPara
         id="flowPara3005"
         style="font-size:13px;fill:#ffffff">Avoid circles that are a different colour or bigger than you!</flowPara></flowRoot>    <path
       transform="matrix(0.24325546,0,0,0.24325546,182.10269,334.4971)"
       sodipodi:type="arc"
       style="fill:#f13600;fill-opacity:1;stroke:none"
       id="path2985-7"
       sodipodi:cx="377.79706"
       sodipodi:cy="531.12347"
       sodipodi:rx="262.63965"
       sodipodi:ry="262.63965"
       d="m 640.43671,531.12347 a 262.63965,262.63965 0 1 1 -525.2793,0 262.63965,262.63965 0 1 1 525.2793,0 z" />
    <path
       transform="matrix(0.06921699,0,0,0.06921699,327.90849,442.84292)"
       sodipodi:type="arc"
       style="fill:#f13600;fill-opacity:1;stroke:none"
       id="path2985-4"
       sodipodi:cx="377.79706"
       sodipodi:cy="531.12347"
       sodipodi:rx="262.63965"
       sodipodi:ry="262.63965"
       d="m 640.43671,531.12347 a 262.63965,262.63965 0 1 1 -525.2793,0 262.63965,262.63965 0 1 1 525.2793,0 z" />
    <flowRoot
       xml:space="preserve"
       id="flowRoot2999-0"
       style="font-size:40px;font-style:normal;font-weight:normal;line-height:125%;letter-spacing:0px;word-spacing:0px;fill:#000000;fill-opacity:1;stroke:none;font-family:Sans"
       transform="translate(-42.087314,195.00373)"><flowRegion
         id="flowRegion3001-9"><rect
           id="rect3003-4"
           width="185.36299"
           height="45.961941"
           x="419.71838"
           y="227.57263" /></flowRegion><flowPara
         id="flowPara3005-8"
         style="font-size:13px;fill:#ffffff">Absorb circles that are smaller than you and the same colour to grow bigger!</flowPara></flowRoot>  </g>
</svg>
